<svg width="50" height="52" viewBox="0 0 50 52" fill="none" xmlns="http://www.w3.org/2000/svg">
<path d="M41.2752 7.25547C39.7734 6.33006 38.1344 5.54224 36.4086 4.88467C36.5706 5.36961 36.7027 5.88489 36.8052 6.43312C38.1439 6.98921 39.4158 7.62951 40.5903 8.35457C45.4716 11.3761 48.6923 15.7411 48.6991 21.4751C48.6991 21.7863 48.6897 22.1013 48.6707 22.4214C48.4456 26.3302 47.3505 30.4896 45.6078 34.3832L37.7578 31.2544C37.6105 31.1974 33.0143 28.1758 32.9218 27.9294C32.6945 27.3168 32.3206 26.155 32.2622 25.9865C32.1749 25.6669 32.0928 24.0013 32.0928 24.0013C32.2469 23.8349 32.3705 23.6989 32.4563 23.6052C33.0044 22.9838 33.0401 21.3391 33.3131 20.9389C33.5877 20.5387 34.1389 20.4534 34.6844 18.5832C35.2335 16.7194 35.9016 14.0524 35.1967 14.0069C35.0231 13.9959 34.828 14.11 34.6255 14.2852C34.7491 13.5994 35.0116 12.0468 35.0694 10.8985C35.1499 9.3867 34.8958 5.51137 34.0327 4.09422C33.4925 3.20752 32.6335 2.31141 31.6336 1.5058C28.5023 -1.01776 22.6979 0.244542 20.9164 0.915189C19.0733 1.60938 17.8356 3.06315 16.9751 4.48606C16.1145 5.90687 15.8468 9.39192 15.9225 10.9038C15.9588 11.5822 16.3665 12.7253 16.4701 13.4242C16.529 13.7878 16.5837 13.7909 16.629 14.0504C16.5579 14.0205 16.488 14.0085 16.4243 14.0116C15.7179 14.0551 16.3859 16.722 16.9335 18.588C17.4811 20.4529 18.0297 20.5413 18.3032 20.9431C18.5778 21.3433 18.6183 22.9885 19.1653 23.6094C19.2526 23.7104 19.3836 23.8516 19.5488 24.0238C19.5488 24.0238 19.5872 25.7161 19.5104 25.9881C19.2742 26.7006 19.0359 27.4136 18.8018 28.1271C18.7776 28.0905 14.1899 31.2141 14.0621 31.2633L5.8791 34.5255C3.04712 29.3732 1.29344 23.7972 1.29975 19.1535C1.29975 17.7986 1.44914 16.5253 1.75369 15.3644C3.17704 9.82978 8.3292 6.26939 14.7922 4.70001C14.8726 4.52006 14.9515 4.33748 15.0441 4.17583C15.2445 3.84365 15.4717 3.5078 15.7142 3.17248C8.39337 4.64142 2.24602 8.48429 0.49497 15.037C0.157279 16.3223 0 17.7065 0 19.1535C0.00946799 25.8458 3.31116 33.9715 8.17981 40.5001C13.0542 47.0099 19.5088 51.9765 26.0748 52H26.1732C39.1044 51.7761 49.1241 35.7648 49.9699 22.4978C49.9905 22.151 50.001 21.8104 49.9999 21.4746C50.0057 15.219 46.4142 10.411 41.2752 7.25547Z" fill="url(#paint0_linear)"/>
<defs>
<linearGradient id="paint0_linear" x1="25" y1="0" x2="25" y2="52" gradientUnits="userSpaceOnUse">
<stop stop-color="#59C6BD"/>
<stop offset="1" stop-color="#59B2BE"/>
</linearGradient>
</defs>
</svg>
