<svg width="52" height="52" viewBox="0 0 52 52" fill="none" xmlns="http://www.w3.org/2000/svg">
<path d="M31.5386 28.6365C31.5237 28.622 31.5072 28.6087 31.4923 28.5949C32.433 27.1357 32.9808 25.3978 32.9814 23.5309C32.9803 18.3759 28.8203 14.1983 23.6861 14.1972C18.5524 14.1983 14.3925 18.3759 14.3909 23.5309C14.3925 28.6858 18.5524 32.8629 23.6861 32.8634C25.5459 32.8634 27.2767 32.3133 28.7293 31.3693C28.7431 31.3837 28.7564 31.4009 28.7713 31.4153L34.9593 37.6294C35.3416 38.0128 35.8426 38.2045 36.3435 38.2045C36.8439 38.2045 37.3443 38.0128 37.7272 37.6294C38.4908 36.8621 38.4908 35.6179 37.7272 34.8506L31.5386 28.6365ZM28.1837 28.0464C27.0278 29.2043 25.4472 29.9162 23.6867 29.9167C21.9262 29.9162 20.3455 29.2043 19.1902 28.0464C18.0371 26.8858 17.3282 25.2992 17.3276 23.5314C17.3282 21.7636 18.0371 20.1753 19.1902 19.0164C20.3455 17.858 21.9262 17.1461 23.6867 17.1455C25.4477 17.1461 27.0284 17.858 28.1837 19.0164C29.3368 20.1759 30.0457 21.7636 30.0463 23.5314C30.0457 25.2992 29.3368 26.8858 28.1837 28.0464ZM42.9271 5.01419C37.5777 1.68912 30.5941 0.00276996 23.8103 0C13.2185 0.00276996 2.90918 4.1339 0.516405 13.1867H0.51585C0.163305 14.5373 0 15.9882 0 17.509C0.0104825 24.5358 3.44324 33.0689 8.5063 39.9235C13.5771 46.7587 20.2898 51.9751 27.1167 52H27.2303C40.6684 51.7629 51.0886 34.9514 51.968 21.0201C51.989 20.6584 52 20.3 52 19.9465C52.0072 13.3784 48.2715 8.32817 42.9271 5.01419ZM50.6191 20.9398C49.8522 34.367 39.4403 50.625 27.2331 50.6422C27.2011 50.641 27.1569 50.6422 27.1167 50.6422C21.0191 50.666 14.51 45.7825 9.59208 39.1147C4.66474 32.4673 1.34177 24.0948 1.35115 17.509C1.35115 16.0869 1.50508 14.7495 1.82231 13.5296C3.88461 5.42858 13.485 1.35563 23.8091 1.35729C30.3701 1.35563 37.1424 3.00874 42.2137 6.17037C47.2906 9.34254 50.6406 13.9268 50.6466 19.9465C50.6477 20.2739 50.6378 20.6047 50.6191 20.9398Z" fill="url(#paint0_linear)"/>
<defs>
<linearGradient id="paint0_linear" x1="26" y1="0" x2="26" y2="52" gradientUnits="userSpaceOnUse">
<stop stop-color="#59C6BD"/>
<stop offset="1" stop-color="#59B2BE"/>
</linearGradient>
</defs>
</svg>
