<svg width="40" height="40" viewBox="0 0 40 40" fill="none" xmlns="http://www.w3.org/2000/svg">
<path d="M20 40C31.0457 40 40 31.0457 40 20C40 8.9543 31.0457 0 20 0C8.9543 0 0 8.9543 0 20C0 31.0457 8.9543 40 20 40Z" fill="#005FF9"/>
<path d="M23.0116 19.4729C23.0116 21.2129 21.6641 22.6246 20.0031 22.6246C18.3422 22.6246 16.9947 21.2129 16.9947 19.4729C16.9947 17.7329 18.3422 16.3212 20.0031 16.3212C21.6641 16.3212 23.0116 17.7395 23.0116 19.4729ZM20.0031 9C14.4876 9 10 13.7013 10 19.4795C10 25.2576 14.4876 29.9524 20.0031 29.9524C22.0213 29.9524 23.9705 29.322 25.6377 28.127L25.6691 28.1073L24.3215 26.4658L24.2965 26.4789C23.0116 27.3391 21.5324 27.7987 20.0031 27.7987C15.6221 27.7987 12.0558 24.0626 12.0558 19.4729C12.0558 14.8832 15.6221 11.1471 20.0031 11.1471C24.3842 11.1471 27.9505 14.8832 27.9505 19.4729C27.9505 20.0704 27.8878 20.6679 27.7625 21.2654C27.5117 22.3489 26.791 22.6772 26.2457 22.6312C25.7004 22.5852 25.0611 22.1781 25.0548 21.1801V19.4729C25.0548 16.551 22.786 14.1741 19.9969 14.1741C17.2078 14.1741 14.9389 16.551 14.9389 19.4729C14.9389 22.3948 17.2078 24.7717 19.9969 24.7717C21.3507 24.7717 22.623 24.2136 23.5819 23.209C24.1398 24.1151 25.0486 24.6864 26.0827 24.7717C26.1705 24.7783 26.2645 24.7849 26.3522 24.7849C27.0793 24.7849 27.8001 24.5288 28.3829 24.0692C28.9846 23.5898 29.4296 22.9004 29.6741 22.0731C29.7117 21.9418 29.7869 21.6332 29.7869 21.6332V21.62C29.9311 20.9568 30 20.2937 30 19.4729C30.0063 13.7013 25.5186 9 20.0031 9Z" fill="#FF9E00"/>
</svg>
